Suite/Test/Step Name,Browser,Description,Tag,Start time,End time,Duration,Status
SearchingBox,Chrome 87.0.4280.88,,,2020-12-27 17:20:12,2020-12-27 17:20:27,14.943s,PASSED
,,,,,,,
Test Cases/Searching Box/Searching Box,Chrome 87.0.4280.88,,,2020-12-27 17:20:13,2020-12-27 17:20:27,14.176s,PASSED
"openBrowser(""https://staging.ladara.id/"")",Chrome 87.0.4280.88,,,2020-12-27 17:20:13,2020-12-27 17:20:23,10.065s,PASSED
"setText(findTestObject(""Wishlist dan Searching Box/Page_/input_tutup_keyword""), ""celana"")",Chrome 87.0.4280.88,,,2020-12-27 17:20:23,2020-12-27 17:20:25,1.542s,PASSED
"click(findTestObject(""Wishlist dan Searching Box/Page_/span_tutup_glyphicon glyphicon-search sp_searchNow submit-search""))",Chrome 87.0.4280.88,,,2020-12-27 17:20:25,2020-12-27 17:20:27,2.302s,PASSED
