Suite/Test/Step Name,Browser,Description,Tag,Start time,End time,Duration,Status
Cart,Chrome 88.0.4324.150,,,2021-02-11 16:02:50,2021-02-11 16:05:18,2m - 27.249s,PASSED
,,,,,,,
Test Cases/Cart/Add To Cart,Chrome 88.0.4324.150,,,2021-02-11 16:02:52,2021-02-11 16:03:54,1m - 1.623s,PASSED
"openBrowser(""https://release.ladara.id/"")",Chrome 88.0.4324.150,,,2021-02-11 16:02:53,2021-02-11 16:03:04,10.849s,PASSED
maximizeWindow(),Chrome 88.0.4324.150,,,2021-02-11 16:03:04,2021-02-11 16:03:04,0.194s,PASSED
"click(findTestObject(""Object Repository/AddToCart/Page_/Page_/a_Masuk""))",Chrome 88.0.4324.150,,,2021-02-11 16:03:04,2021-02-11 16:03:08,4.081s,PASSED
"setText(findTestObject(""Object Repository/LoginObjectRepository/Page_Login/input_Selamat datang di Ladara_log""), email)",Chrome 88.0.4324.150,,,2021-02-11 16:03:08,2021-02-11 16:03:10,2.324s,PASSED
"setText(findTestObject(""Object Repository/LoginObjectRepository/Page_Login/input_Masukkan Email_pwd""), password)",Chrome 88.0.4324.150,,,2021-02-11 16:03:10,2021-02-11 16:03:11,0.744s,PASSED
"click(findTestObject(""Object Repository/LoginObjectRepository/Page_Login/input_Masukkan Kata Sandi_user-submit""))",Chrome 88.0.4324.150,,,2021-02-11 16:03:11,2021-02-11 16:03:11,0.437s,PASSED
delay(5),Chrome 88.0.4324.150,,,2021-02-11 16:03:11,2021-02-11 16:03:16,5.045s,PASSED
"setText(findTestObject(""Wishlist dan Searching Box/Page_/input_tutup_keyword""), ""celana"")",Chrome 88.0.4324.150,,,2021-02-11 16:03:16,2021-02-11 16:03:21,4.772s,PASSED
"click(findTestObject(""Wishlist dan Searching Box/Page_/span_tutup_glyphicon glyphicon-search sp_searchNow submit-search""))",Chrome 88.0.4324.150,,,2021-02-11 16:03:21,2021-02-11 16:03:25,4.332s,PASSED
"click(findTestObject(""Object Repository/Cart/Page_Product/h4_Celana pendek anak Rcr -80 baby frozen""))",Chrome 88.0.4324.150,,,2021-02-11 16:03:25,2021-02-11 16:03:34,8.751s,PASSED
"click(findTestObject(""Object Repository/Cart/Page_Jual Celana pendek anak Rcr -80 baby frozen/varian_hitam""))",Chrome 88.0.4324.150,,,2021-02-11 16:03:34,2021-02-11 16:03:35,0.432s,PASSED
"click(findTestObject(""Object Repository/Cart/Page_Jual Celana pendek anak Rcr -80 baby frozen/ukuran_30""))",Chrome 88.0.4324.150,,,2021-02-11 16:03:35,2021-02-11 16:03:35,0.531s,PASSED
"click(findTestObject(""Object Repository/Cart/Page_Jual Celana pendek anak Rcr -80 baby frozen/span_Sukses menambahkan produk ini ke keranjang belanja Anda._addtocart_detail""))",Chrome 88.0.4324.150,,,2021-02-11 16:03:35,2021-02-11 16:03:36,0.526s,PASSED
delay(3),Chrome 88.0.4324.150,,,2021-02-11 16:03:36,2021-02-11 16:03:39,3.004s,PASSED
,,,,,,,
Test Cases/Cart/Get View Cart,Chrome 88.0.4324.150,,,2021-02-11 16:03:54,2021-02-11 16:04:35,41.354s,PASSED
"openBrowser(""https://release.ladara.id/"")",Chrome 88.0.4324.150,,,2021-02-11 16:03:54,2021-02-11 16:04:05,10.850s,PASSED
maximizeWindow(),Chrome 88.0.4324.150,,,2021-02-11 16:04:05,2021-02-11 16:04:05,0.144s,PASSED
"click(findTestObject(""Object Repository/AddToCart/Page_/Page_/a_Masuk""))",Chrome 88.0.4324.150,,,2021-02-11 16:04:05,2021-02-11 16:04:12,6.823s,PASSED
"setText(findTestObject(""Object Repository/LoginObjectRepository/Page_Login/input_Selamat datang di Ladara_log""), ""mathias.brait@idstar.co.id"")",Chrome 88.0.4324.150,,,2021-02-11 16:04:12,2021-02-11 16:04:14,2.145s,PASSED
"setText(findTestObject(""Object Repository/LoginObjectRepository/Page_Login/input_Masukkan Email_pwd""), ""Testing123%"")",Chrome 88.0.4324.150,,,2021-02-11 16:04:14,2021-02-11 16:04:15,0.774s,PASSED
"click(findTestObject(""Object Repository/LoginObjectRepository/Page_Login/input_Masukkan Kata Sandi_user-submit""))",Chrome 88.0.4324.150,,,2021-02-11 16:04:15,2021-02-11 16:04:15,0.448s,PASSED
delay(5),Chrome 88.0.4324.150,,,2021-02-11 16:04:15,2021-02-11 16:04:20,5.004s,PASSED
"click(findTestObject(""Object Repository/Checkout/Page_/Page_/img""))",Chrome 88.0.4324.150,,,2021-02-11 16:04:20,2021-02-11 16:04:23,3.212s,PASSED
delay(3),Chrome 88.0.4324.150,,,2021-02-11 16:04:23,2021-02-11 16:04:26,3.002s,PASSED
"click(findTestObject(""Object Repository/Cart/Page_/Lihat_cart""))",Chrome 88.0.4324.150,,,2021-02-11 16:04:26,2021-02-11 16:04:30,3.266s,PASSED
delay(4),Chrome 88.0.4324.150,,,2021-02-11 16:04:30,2021-02-11 16:04:34,4.004s,PASSED
"verifyTextPresent(""Keranjang Belanja"", false)",Chrome 88.0.4324.150,,,2021-02-11 16:04:34,2021-02-11 16:04:34,0.489s,PASSED
closeBrowser(),Chrome 88.0.4324.150,,,2021-02-11 16:04:34,2021-02-11 16:04:35,0.758s,PASSED
,,,,,,,
Test Cases/Cart/Delete Cart,Chrome 88.0.4324.150,,,2021-02-11 16:04:35,2021-02-11 16:05:18,42.571s,PASSED
"openBrowser(""https://release.ladara.id/"")",Chrome 88.0.4324.150,,,2021-02-11 16:04:35,2021-02-11 16:04:45,9.864s,PASSED
maximizeWindow(),Chrome 88.0.4324.150,,,2021-02-11 16:04:45,2021-02-11 16:04:45,0.138s,PASSED
"click(findTestObject(""Object Repository/AddToCart/Page_/Page_/a_Masuk""))",Chrome 88.0.4324.150,,,2021-02-11 16:04:45,2021-02-11 16:04:50,4.575s,PASSED
"setText(findTestObject(""Object Repository/LoginObjectRepository/Page_Login/input_Selamat datang di Ladara_log""), email)",Chrome 88.0.4324.150,,,2021-02-11 16:04:50,2021-02-11 16:04:52,1.675s,PASSED
"setText(findTestObject(""Object Repository/LoginObjectRepository/Page_Login/input_Masukkan Email_pwd""), password)",Chrome 88.0.4324.150,,,2021-02-11 16:04:52,2021-02-11 16:04:52,0.661s,PASSED
"click(findTestObject(""Object Repository/LoginObjectRepository/Page_Login/input_Masukkan Kata Sandi_user-submit""))",Chrome 88.0.4324.150,,,2021-02-11 16:04:52,2021-02-11 16:04:53,0.389s,PASSED
delay(5),Chrome 88.0.4324.150,,,2021-02-11 16:04:53,2021-02-11 16:04:58,5.002s,PASSED
"click(findTestObject(""Checkout/Page_/Page_/img""))",Chrome 88.0.4324.150,,,2021-02-11 16:04:58,2021-02-11 16:05:01,3.444s,PASSED
delay(3),Chrome 88.0.4324.150,,,2021-02-11 16:05:01,2021-02-11 16:05:04,3.003s,PASSED
"click(findTestObject(""Object Repository/Cart/Page_/Lihat_cart""))",Chrome 88.0.4324.150,,,2021-02-11 16:05:04,2021-02-11 16:05:07,3.282s,PASSED
"verifyTextPresent(""Keranjang Belanja"", false)",Chrome 88.0.4324.150,,,2021-02-11 16:05:07,2021-02-11 16:05:09,2.127s,PASSED
delay(4),Chrome 88.0.4324.150,,,2021-02-11 16:05:09,2021-02-11 16:05:13,4.004s,PASSED
"click(findTestObject(""Object Repository/Cart/Page_/deleteproduct""))",Chrome 88.0.4324.150,,,2021-02-11 16:05:13,2021-02-11 16:05:14,0.398s,PASSED
delay(0),Chrome 88.0.4324.150,,,2021-02-11 16:05:14,2021-02-11 16:05:14,0.003s,PASSED
"verifyTextPresent(""Apakah Anda ingin menghapus produk ini?"", false)",Chrome 88.0.4324.150,,,2021-02-11 16:05:14,2021-02-11 16:05:14,0.599s,PASSED
delay(2),Chrome 88.0.4324.150,,,2021-02-11 16:05:14,2021-02-11 16:05:16,2.003s,PASSED
"click(findTestObject(""Cart/Page_/accept_delete""))",Chrome 88.0.4324.150,,,2021-02-11 16:05:16,2021-02-11 16:05:17,0.362s,PASSED
closeBrowser(),Chrome 88.0.4324.150,,,2021-02-11 16:05:17,2021-02-11 16:05:18,0.696s,PASSED
