Suite/Test/Step Name,Browser,Description,Tag,Start time,End time,Duration,Status
Alamat,Chrome 88.0.4324.104,,,2021-01-26 12:44:00,2021-01-26 12:46:37,2m - 37.004s,FAILED
,,,,,,,
Test Cases/Pengaturan Alamat/Tambah Alamat,Chrome 88.0.4324.104,,,2021-01-26 12:44:01,2021-01-26 12:44:55,53.921s,FAILED
"openBrowser(""https://staging.ladara.id/"")",Chrome 88.0.4324.104,,,2021-01-26 12:44:02,2021-01-26 12:44:09,7.166s,PASSED
"click(findTestObject(""AddToCart/Page_/Page_/a_Masuk""))",Chrome 88.0.4324.104,,,2021-01-26 12:44:09,2021-01-26 12:44:10,1.557s,PASSED
"setText(findTestObject(""LoginObjectRepository/Page_Login/input_Selamat datang di Ladara_log""), ""mathias.brait@idstar.co.id"")",Chrome 88.0.4324.104,,,2021-01-26 12:44:10,2021-01-26 12:44:12,1.482s,PASSED
"setText(findTestObject(""LoginObjectRepository/Page_Login/input_Masukkan Email_pwd""), ""Testing123"")",Chrome 88.0.4324.104,,,2021-01-26 12:44:12,2021-01-26 12:44:12,0.677s,PASSED
"click(findTestObject(""LoginObjectRepository/Page_Login/input_Masukkan Kata Sandi_user-submit""))",Chrome 88.0.4324.104,,,2021-01-26 12:44:12,2021-01-26 12:44:13,0.368s,PASSED
"click(findTestObject(""Object Repository/AddAlamat/Page_/span_Mathias""))",Chrome 88.0.4324.104,,,2021-01-26 12:44:13,2021-01-26 12:44:15,2.595s,PASSED
"click(findTestObject(""Object Repository/AddAlamat/Page_/a_Pengaturan""))",Chrome 88.0.4324.104,,,2021-01-26 12:44:15,2021-01-26 12:44:19,3.751s,PASSED
delay(4),Chrome 88.0.4324.104,,,2021-01-26 12:44:19,2021-01-26 12:44:23,4.023s,PASSED
"click(findTestObject(""Object Repository/AddAlamat/Page_Address/Page_Address/alamat""))",Chrome 88.0.4324.104,,,2021-01-26 12:44:23,2021-01-26 12:44:55,31.809s,FAILED
,,,,,,,
Test Cases/Pengaturan Alamat/Hapus Alamat,Chrome 88.0.4324.104,,,2021-01-26 12:44:55,2021-01-26 12:45:59,1m - 4.111s,FAILED
"openBrowser(""https://staging.ladara.id/"")",Chrome 88.0.4324.104,,,2021-01-26 12:44:55,2021-01-26 12:45:04,8.622s,PASSED
"click(findTestObject(""AddToCart/Page_/Page_/a_Masuk""))",Chrome 88.0.4324.104,,,2021-01-26 12:45:04,2021-01-26 12:45:07,2.690s,PASSED
"setText(findTestObject(""LoginObjectRepository/Page_Login/input_Selamat datang di Ladara_log""), ""mathias.brait@idstar.co.id"")",Chrome 88.0.4324.104,,,2021-01-26 12:45:07,2021-01-26 12:45:08,1.746s,PASSED
"setText(findTestObject(""LoginObjectRepository/Page_Login/input_Masukkan Email_pwd""), ""Testing123"")",Chrome 88.0.4324.104,,,2021-01-26 12:45:08,2021-01-26 12:45:09,0.651s,PASSED
"click(findTestObject(""LoginObjectRepository/Page_Login/input_Masukkan Kata Sandi_user-submit""))",Chrome 88.0.4324.104,,,2021-01-26 12:45:09,2021-01-26 12:45:09,0.349s,PASSED
"click(findTestObject(""Object Repository/AddAlamat/Page_/span_Mathias""))",Chrome 88.0.4324.104,,,2021-01-26 12:45:09,2021-01-26 12:45:17,7.848s,PASSED
"click(findTestObject(""Object Repository/AddAlamat/Page_/a_Pengaturan""))",Chrome 88.0.4324.104,,,2021-01-26 12:45:17,2021-01-26 12:45:21,3.887s,PASSED
"click(findTestObject(""Object Repository/AddAlamat/Page_Address/Page_Address/alamat""))",Chrome 88.0.4324.104,,,2021-01-26 12:45:21,2021-01-26 12:45:24,3.480s,PASSED
"navigateToUrl(""https://staging.ladara.id/profile/address"")",Chrome 88.0.4324.104,,,2021-01-26 12:45:24,2021-01-26 12:45:28,3.157s,PASSED
"click(findTestObject(""Object Repository/AddAlamat/Page_Address/Page_Address/span_Hapus""))",Chrome 88.0.4324.104,,,2021-01-26 12:45:28,2021-01-26 12:45:59,31.444s,FAILED
,,,,,,,
Test Cases/Pengaturan Alamat/Edit Alamat,Chrome 88.0.4324.104,,,2021-01-26 12:45:59,2021-01-26 12:46:37,37.680s,PASSED
"openBrowser(""https://staging.ladara.id/"")",Chrome 88.0.4324.104,,,2021-01-26 12:45:59,2021-01-26 12:46:08,8.278s,PASSED
"click(findTestObject(""AddToCart/Page_/Page_/a_Masuk""))",Chrome 88.0.4324.104,,,2021-01-26 12:46:08,2021-01-26 12:46:10,2.568s,PASSED
"setText(findTestObject(""LoginObjectRepository/Page_Login/input_Selamat datang di Ladara_log""), ""mathias.brait@idstar.co.id"")",Chrome 88.0.4324.104,,,2021-01-26 12:46:10,2021-01-26 12:46:12,1.754s,PASSED
"setText(findTestObject(""LoginObjectRepository/Page_Login/input_Masukkan Email_pwd""), ""Testing123"")",Chrome 88.0.4324.104,,,2021-01-26 12:46:12,2021-01-26 12:46:13,0.629s,PASSED
"click(findTestObject(""LoginObjectRepository/Page_Login/input_Masukkan Kata Sandi_user-submit""))",Chrome 88.0.4324.104,,,2021-01-26 12:46:13,2021-01-26 12:46:13,0.349s,PASSED
delay(3),Chrome 88.0.4324.104,,,2021-01-26 12:46:13,2021-01-26 12:46:16,3.003s,PASSED
"click(findTestObject(""Object Repository/AddAlamat/Page_/span_Mathias""))",Chrome 88.0.4324.104,,,2021-01-26 12:46:16,2021-01-26 12:46:21,4.932s,PASSED
delay(3),Chrome 88.0.4324.104,,,2021-01-26 12:46:21,2021-01-26 12:46:24,3.003s,PASSED
"click(findTestObject(""Object Repository/UpdateProfileRepository/Page_/a_Pengaturan""))",Chrome 88.0.4324.104,,,2021-01-26 12:46:24,2021-01-26 12:46:27,3.323s,PASSED
"click(findTestObject(""Object Repository/AddAlamat/Page_Address/Page_Address/alamat""))",Chrome 88.0.4324.104,,,2021-01-26 12:46:27,2021-01-26 12:46:31,3.910s,PASSED
"click(findTestObject(""Object Repository/AddAlamat/Page_Address/Page_Address/span_Ubah""))",Chrome 88.0.4324.104,,,2021-01-26 12:46:31,2021-01-26 12:46:35,4.150s,PASSED
"setText(findTestObject(""Object Repository/AddAlamat/Page_Add Address/textarea__alamat""), ""Jalan Kesehatan VII No B29"")",Chrome 88.0.4324.104,,,2021-01-26 12:46:35,2021-01-26 12:46:36,0.607s,PASSED
"setText(findTestObject(""Object Repository/AddAlamat/Page_Add Address/input__nomor_hp""), ""08123278581"")",Chrome 88.0.4324.104,,,2021-01-26 12:46:36,2021-01-26 12:46:36,0.612s,PASSED
"click(findTestObject(""Object Repository/AddAlamat/Page_Add Address/input_Sukses,_wp-submit""))",Chrome 88.0.4324.104,,,2021-01-26 12:46:36,2021-01-26 12:46:37,0.366s,PASSED
