Suite/Test/Step Name,Browser,Description,Tag,Start time,End time,Duration,Status
Alamat,Chrome 88.0.4324.150,,,2021-02-11 15:19:50,2021-02-11 15:22:32,2m - 42.617s,PASSED
,,,,,,,
Test Cases/Pengaturan Alamat/Tambah Alamat,Chrome 88.0.4324.150,,,2021-02-11 15:19:51,2021-02-11 15:20:55,1m - 3.954s,PASSED
"openBrowser(""https://staging.ladara.id/"")",Chrome 88.0.4324.150,,,2021-02-11 15:19:52,2021-02-11 15:20:03,11.093s,PASSED
"click(findTestObject(""AddToCart/Page_/Page_/a_Masuk""))",Chrome 88.0.4324.150,,,2021-02-11 15:20:03,2021-02-11 15:20:06,2.572s,PASSED
"setText(findTestObject(""LoginObjectRepository/Page_Login/input_Selamat datang di Ladara_log""), ""mathias.brait@idstar.co.id"")",Chrome 88.0.4324.150,,,2021-02-11 15:20:06,2021-02-11 15:20:07,1.484s,PASSED
"setText(findTestObject(""LoginObjectRepository/Page_Login/input_Masukkan Email_pwd""), ""Testing123"")",Chrome 88.0.4324.150,,,2021-02-11 15:20:07,2021-02-11 15:20:08,0.670s,PASSED
"click(findTestObject(""LoginObjectRepository/Page_Login/input_Masukkan Kata Sandi_user-submit""))",Chrome 88.0.4324.150,,,2021-02-11 15:20:08,2021-02-11 15:20:08,0.366s,PASSED
delay(3),Chrome 88.0.4324.150,,,2021-02-11 15:20:08,2021-02-11 15:20:11,3.032s,PASSED
"click(findTestObject(""Object Repository/AddAlamat/Page_/span_Mathias""))",Chrome 88.0.4324.150,,,2021-02-11 15:20:11,2021-02-11 15:20:15,3.928s,PASSED
delay(3),Chrome 88.0.4324.150,,,2021-02-11 15:20:15,2021-02-11 15:20:18,3.003s,PASSED
"click(findTestObject(""AddAlamat/Page_/a_Pengaturan""))",Chrome 88.0.4324.150,,,2021-02-11 15:20:18,2021-02-11 15:20:22,3.434s,PASSED
"click(findTestObject(""Object Repository/AddAlamat/Page_Address/Page_Address/alamat""))",Chrome 88.0.4324.150,,,2021-02-11 15:20:22,2021-02-11 15:20:25,3.559s,PASSED
"click(findTestObject(""AddAlamat/Page_Address/button_Tambah Alamat""))",Chrome 88.0.4324.150,,,2021-02-11 15:20:25,2021-02-11 15:20:29,3.619s,PASSED
"setText(findTestObject(""AddAlamat/Page_Add Address/input__nama_alamat""), ""Rumah Pribadi"")",Chrome 88.0.4324.150,,,2021-02-11 15:20:29,2021-02-11 15:20:29,0.706s,PASSED
"setText(findTestObject(""AddAlamat/Page_Add Address/input__nama_lengkap""), ""Mathias Brait Andwiki Sitohang"")",Chrome 88.0.4324.150,,,2021-02-11 15:20:29,2021-02-11 15:20:30,0.689s,PASSED
"setText(findTestObject(""AddAlamat/Page_Add Address/input__nomor_hp""), ""081286281318"")",Chrome 88.0.4324.150,,,2021-02-11 15:20:30,2021-02-11 15:20:31,0.655s,PASSED
"setText(findTestObject(""AddAlamat/Page_Add Address/textarea__alamat""), ""Jalan Testing"")",Chrome 88.0.4324.150,,,2021-02-11 15:20:31,2021-02-11 15:20:31,0.670s,PASSED
"selectOptionByLabel(findTestObject(""AddAlamat/Page_Add Address/select_Pilih Provinsi""), ""Jawa Barat"", false)",Chrome 88.0.4324.150,,,2021-02-11 15:20:31,2021-02-11 15:20:32,0.663s,PASSED
"verifyOptionPresentByLabel(findTestObject(""AddAlamat/Page_Add Address/select_Pilih Provinsi""), ""Jawa Barat"", false, 60)",Chrome 88.0.4324.150,,,2021-02-11 15:20:32,2021-02-11 15:20:35,2.434s,PASSED
"selectOptionByLabel(findTestObject(""AddAlamat/Page_Add Address/select_Pilih Kota""), ""Bekasi, Kota"", false)",Chrome 88.0.4324.150,,,2021-02-11 15:20:35,2021-02-11 15:20:35,0.635s,PASSED
"verifyOptionPresentByLabel(findTestObject(""AddAlamat/Page_Add Address/select_Pilih Kota""), ""Bekasi, Kota"", false, 60)",Chrome 88.0.4324.150,,,2021-02-11 15:20:35,2021-02-11 15:20:37,1.860s,PASSED
"selectOptionByLabel(findTestObject(""AddAlamat/Page_Add Address/select_Pilih Kecamatan""), ""Pondok Gede"", false)",Chrome 88.0.4324.150,,,2021-02-11 15:20:37,2021-02-11 15:20:38,0.680s,PASSED
"verifyOptionSelectedByLabel(findTestObject(""AddAlamat/Page_Add Address/select_Pilih Kecamatan""), ""Pondok Gede"", false, 60)",Chrome 88.0.4324.150,,,2021-02-11 15:20:38,2021-02-11 15:20:40,2.655s,PASSED
"selectOptionByLabel(findTestObject(""AddAlamat/Page_Add Address/select_Pilih Kode Pos""), ""17412 (Jatibening Baru)"", false)",Chrome 88.0.4324.150,,,2021-02-11 15:20:40,2021-02-11 15:20:41,0.655s,PASSED
"verifyOptionPresentByLabel(findTestObject(""AddAlamat/Page_Add Address/select_Pilih Kode Pos""), ""17412 (Jatibening Baru)"", false, 0)",Chrome 88.0.4324.150,,,2021-02-11 15:20:41,2021-02-11 15:20:42,0.693s,PASSED
"setText(findTestObject(""AddAlamat/Page_Add Address/input_Pin Alamat_address""), ""Depkes 3"")",Chrome 88.0.4324.150,,,2021-02-11 15:20:42,2021-02-11 15:20:42,0.702s,PASSED
"click(findTestObject(""AddAlamat/Page_Add Address/span_Alamat Utama_checkmark""))",Chrome 88.0.4324.150,,,2021-02-11 15:20:42,2021-02-11 15:20:43,0.786s,PASSED
"click(findTestObject(""AddAlamat/Page_Add Address/span_Alamat Utama_checkmark""))",Chrome 88.0.4324.150,,,2021-02-11 15:20:43,2021-02-11 15:20:44,0.385s,PASSED
"click(findTestObject(""AddAlamat/Page_Add Address/input_Sukses,_wp-submit""))",Chrome 88.0.4324.150,,,2021-02-11 15:20:44,2021-02-11 15:20:44,0.423s,PASSED
,,,,,,,
Test Cases/Pengaturan Alamat/Hapus Alamat,Chrome 88.0.4324.150,,,2021-02-11 15:20:55,2021-02-11 15:21:42,46.900s,PASSED
"openBrowser(""https://staging.ladara.id/"")",Chrome 88.0.4324.150,,,2021-02-11 15:20:56,2021-02-11 15:21:06,9.932s,PASSED
"click(findTestObject(""AddToCart/Page_/Page_/a_Masuk""))",Chrome 88.0.4324.150,,,2021-02-11 15:21:06,2021-02-11 15:21:09,2.997s,PASSED
"setText(findTestObject(""LoginObjectRepository/Page_Login/input_Selamat datang di Ladara_log""), ""mathias.brait@idstar.co.id"")",Chrome 88.0.4324.150,,,2021-02-11 15:21:09,2021-02-11 15:21:10,1.833s,PASSED
"setText(findTestObject(""LoginObjectRepository/Page_Login/input_Masukkan Email_pwd""), ""Testing123"")",Chrome 88.0.4324.150,,,2021-02-11 15:21:10,2021-02-11 15:21:11,0.676s,PASSED
"click(findTestObject(""LoginObjectRepository/Page_Login/input_Masukkan Kata Sandi_user-submit""))",Chrome 88.0.4324.150,,,2021-02-11 15:21:11,2021-02-11 15:21:12,0.377s,PASSED
delay(3),Chrome 88.0.4324.150,,,2021-02-11 15:21:12,2021-02-11 15:21:15,3.003s,PASSED
"click(findTestObject(""Object Repository/AddAlamat/Page_/span_Mathias""))",Chrome 88.0.4324.150,,,2021-02-11 15:21:15,2021-02-11 15:21:18,3.926s,PASSED
delay(3),Chrome 88.0.4324.150,,,2021-02-11 15:21:18,2021-02-11 15:21:21,3.003s,PASSED
"click(findTestObject(""AddAlamat/Page_/a_Pengaturan""))",Chrome 88.0.4324.150,,,2021-02-11 15:21:21,2021-02-11 15:21:25,3.493s,PASSED
"click(findTestObject(""Object Repository/AddAlamat/Page_Address/Page_Address/alamat""))",Chrome 88.0.4324.150,,,2021-02-11 15:21:25,2021-02-11 15:21:29,3.761s,PASSED
"click(findTestObject(""Object Repository/AddAlamat/Page_Address/Page_Address/span_Hapus""))",Chrome 88.0.4324.150,,,2021-02-11 15:21:29,2021-02-11 15:21:29,0.389s,PASSED
delay(4),Chrome 88.0.4324.150,,,2021-02-11 15:21:29,2021-02-11 15:21:33,4.003s,PASSED
"click(findTestObject(""Object Repository/AddAlamat/Page_Address/Page_Address/a_Setuju""))",Chrome 88.0.4324.150,,,2021-02-11 15:21:33,2021-02-11 15:21:33,0.348s,PASSED
,,,,,,,
Test Cases/Pengaturan Alamat/Edit Alamat,Chrome 88.0.4324.150,,,2021-02-11 15:21:42,2021-02-11 15:22:32,50.180s,PASSED
"openBrowser(""https://staging.ladara.id/"")",Chrome 88.0.4324.150,,,2021-02-11 15:21:43,2021-02-11 15:21:54,11.203s,PASSED
"click(findTestObject(""AddToCart/Page_/Page_/a_Masuk""))",Chrome 88.0.4324.150,,,2021-02-11 15:21:54,2021-02-11 15:21:57,2.988s,PASSED
"setText(findTestObject(""LoginObjectRepository/Page_Login/input_Selamat datang di Ladara_log""), ""mathias.brait@idstar.co.id"")",Chrome 88.0.4324.150,,,2021-02-11 15:21:57,2021-02-11 15:21:59,1.802s,PASSED
"setText(findTestObject(""LoginObjectRepository/Page_Login/input_Masukkan Email_pwd""), ""Testing123"")",Chrome 88.0.4324.150,,,2021-02-11 15:21:59,2021-02-11 15:21:59,0.685s,PASSED
"click(findTestObject(""LoginObjectRepository/Page_Login/input_Masukkan Kata Sandi_user-submit""))",Chrome 88.0.4324.150,,,2021-02-11 15:21:59,2021-02-11 15:22:00,0.399s,PASSED
delay(3),Chrome 88.0.4324.150,,,2021-02-11 15:22:00,2021-02-11 15:22:03,3.003s,PASSED
"click(findTestObject(""Object Repository/AddAlamat/Page_/span_Mathias""))",Chrome 88.0.4324.150,,,2021-02-11 15:22:03,2021-02-11 15:22:07,3.957s,PASSED
delay(3),Chrome 88.0.4324.150,,,2021-02-11 15:22:07,2021-02-11 15:22:10,3.003s,PASSED
"click(findTestObject(""Object Repository/UpdateProfileRepository/Page_/a_Pengaturan""))",Chrome 88.0.4324.150,,,2021-02-11 15:22:10,2021-02-11 15:22:14,3.895s,PASSED
"click(findTestObject(""Object Repository/AddAlamat/Page_Address/Page_Address/alamat""))",Chrome 88.0.4324.150,,,2021-02-11 15:22:14,2021-02-11 15:22:17,3.789s,PASSED
"click(findTestObject(""Object Repository/AddAlamat/Page_Address/Page_Address/span_Ubah""))",Chrome 88.0.4324.150,,,2021-02-11 15:22:17,2021-02-11 15:22:21,3.719s,PASSED
"setText(findTestObject(""Object Repository/AddAlamat/Page_Add Address/textarea__alamat""), ""Jalan Kesehatan VII No B29"")",Chrome 88.0.4324.150,,,2021-02-11 15:22:21,2021-02-11 15:22:22,0.682s,PASSED
"setText(findTestObject(""Object Repository/AddAlamat/Page_Add Address/input__nomor_hp""), ""08123278581"")",Chrome 88.0.4324.150,,,2021-02-11 15:22:22,2021-02-11 15:22:22,0.657s,PASSED
"click(findTestObject(""Object Repository/AddAlamat/Page_Add Address/input_Sukses,_wp-submit""))",Chrome 88.0.4324.150,,,2021-02-11 15:22:22,2021-02-11 15:22:23,0.412s,PASSED
