Suite/Test/Step Name,Browser,Description,Tag,Start time,End time,Duration,Status
FilterProduct,Chrome 87.0.4280.88,,,2020-12-27 13:13:26,2020-12-27 13:15:19,1m - 52.502s,PASSED
,,,,,,,
Test Cases/Filter produk sorting/Filter produk sorting,Chrome 87.0.4280.88,,,2020-12-27 13:13:27,2020-12-27 13:15:19,1m - 51.601s,PASSED
"openBrowser(""https://staging.ladara.id/shop"")",Chrome 87.0.4280.88,,,2020-12-27 13:13:27,2020-12-27 13:13:40,12.790s,PASSED
"selectOptionByLabel(findTestObject(""Produk Sorting Filter/Page_Shop/select_Paling SesuaiProduk A-ZProduk Z-ATermurah""), ""Paling Sesuai"", false, STOP_ON_FAILURE)",Chrome 87.0.4280.88,,,2020-12-27 13:13:40,2020-12-27 13:13:41,0.819s,PASSED
"verifyOptionSelectedByLabel(findTestObject(""Produk Sorting Filter/Page_Shop/select_Paling SesuaiProduk A-ZProduk Z-ATermurah""), ""Paling Sesuai"", false, 60)",Chrome 87.0.4280.88,,,2020-12-27 13:13:41,2020-12-27 13:13:42,1.418s,PASSED
delay(5),Chrome 87.0.4280.88,,,2020-12-27 13:13:42,2020-12-27 13:13:47,5.048s,PASSED
"selectOptionByLabel(findTestObject(""Produk Sorting Filter/Page_Shop/select_Paling SesuaiProduk A-ZProduk Z-ATermurah""), ""Produk A-Z"", false, STOP_ON_FAILURE)",Chrome 87.0.4280.88,,,2020-12-27 13:13:47,2020-12-27 13:13:50,2.696s,PASSED
"verifyOptionSelectedByLabel(findTestObject(""Produk Sorting Filter/Page_Shop/select_Paling SesuaiProduk A-ZProduk Z-ATermurah""), ""Produk A-Z"", false, 60)",Chrome 87.0.4280.88,,,2020-12-27 13:13:50,2020-12-27 13:13:54,3.390s,PASSED
delay(5),Chrome 87.0.4280.88,,,2020-12-27 13:13:54,2020-12-27 13:13:59,5.005s,PASSED
"selectOptionByLabel(findTestObject(""Produk Sorting Filter/Page_Shop/select_Paling SesuaiProduk A-ZProduk Z-ATermurah""), ""Produk Z-A"", false, STOP_ON_FAILURE)",Chrome 87.0.4280.88,,,2020-12-27 13:13:59,2020-12-27 13:14:02,2.974s,PASSED
"verifyOptionSelectedByLabel(findTestObject(""Produk Sorting Filter/Page_Shop/select_Paling SesuaiProduk A-ZProduk Z-ATermurah""), ""Produk Z-A"", false, 60)",Chrome 87.0.4280.88,,,2020-12-27 13:14:02,2020-12-27 13:14:05,3.550s,PASSED
delay(5),Chrome 87.0.4280.88,,,2020-12-27 13:14:05,2020-12-27 13:14:10,5.004s,PASSED
"selectOptionByLabel(findTestObject(""Produk Sorting Filter/Page_Shop/select_Paling SesuaiProduk A-ZProduk Z-ATermurah""), ""Termurah"", false, STOP_ON_FAILURE)",Chrome 87.0.4280.88,,,2020-12-27 13:14:10,2020-12-27 13:14:13,3.146s,PASSED
"verifyOptionSelectedByLabel(findTestObject(""Produk Sorting Filter/Page_Shop/select_Paling SesuaiProduk A-ZProduk Z-ATermurah""), ""Termurah"", false, 60)",Chrome 87.0.4280.88,,,2020-12-27 13:14:13,2020-12-27 13:14:16,3.104s,PASSED
delay(5),Chrome 87.0.4280.88,,,2020-12-27 13:14:16,2020-12-27 13:14:21,5.006s,PASSED
