Suite/Test/Step Name,Browser,Description,Tag,Start time,End time,Duration,Status
AddToCart,Chrome 87.0.4280.88,,,2020-12-29 14:33:07,2020-12-29 14:33:51,44.108s,FAILED
,,,,,,,
Test Cases/Add To Cart/AddToCart2,Chrome 87.0.4280.88,Menambahkan produk ke keranjang melalui kolom pencarian,,2020-12-29 14:33:08,2020-12-29 14:33:51,43.085s,FAILED
"openBrowser(""https://staging.ladara.id/"")",Chrome 87.0.4280.88,,,2020-12-29 14:33:08,2020-12-29 14:33:19,10.733s,PASSED
"click(findTestObject(""Object Repository/AddToCart/Page_/Page_/a_Masuk""))",Chrome 87.0.4280.88,,,2020-12-29 14:33:19,2020-12-29 14:33:22,2.805s,PASSED
"setText(findTestObject(""Object Repository/LoginObjectRepository/Page_Login/input_Selamat datang di Ladara_log""), ""testingkatalon13@gmail.com"")",Chrome 87.0.4280.88,,,2020-12-29 14:33:22,2020-12-29 14:33:24,1.984s,PASSED
"setText(findTestObject(""Object Repository/LoginObjectRepository/Page_Login/input_Masukkan Email_pwd""), ""Testing123"")",Chrome 87.0.4280.88,,,2020-12-29 14:33:24,2020-12-29 14:33:25,0.831s,PASSED
"click(findTestObject(""Object Repository/LoginObjectRepository/Page_Login/input_Masukkan Kata Sandi_user-submit""))",Chrome 87.0.4280.88,,,2020-12-29 14:33:25,2020-12-29 14:33:25,0.549s,PASSED
delay(5),Chrome 87.0.4280.88,,,2020-12-29 14:33:25,2020-12-29 14:33:30,5.030s,PASSED
"click(findTestObject(""Object Repository/Cart/Page_/h4_Telor ceplok""), CONTINUE_ON_FAILURE)",Chrome 87.0.4280.88,,,2020-12-29 14:33:30,2020-12-29 14:33:39,8.340s,PASSED
"click(findTestObject(""Cart/Page_Jual Telor ceplok/label_1""))",Chrome 87.0.4280.88,,,2020-12-29 14:33:39,2020-12-29 14:33:51,12.522s,FAILED
